{
	"info": {
		"_postman_id": "338f3165-3aa0-46be-92e2-9351fc6830f1",
		"name": "Laravel8",
		"schema": "https://schema.getpostman.com/json/collection/v2.1.0/collection.json"
	},
	"item": [
		{
			"name": "API",
			"item": [
				{
					"name": "Login",
					"request": {
						"method": "POST",
						"header": [],
						"body": {
							"mode": "raw",
							"raw": "{\n    \"email\": \"tcodevn+2@gmail.com\",\n    \"password\": \"12345678\"\n}",
							"options": {
								"raw": {
									"language": "json"
								}
							}
						},
						"url": {
							"raw": "localhost/api/auth/login",
							"host": [
								"localhost"
							],
							"path": [
								"api",
								"auth",
								"login"
							]
						}
					},
					"response": []
				},
				{
					"name": "Register",
					"request": {
						"method": "PUT",
						"header": [],
						"body": {
							"mode": "raw",
							"raw": "{   \n    \"name\": \"Thanh Customer\",\n    \"email\": \"tcodevn+1@gmail.com\",\n    \"password\": \"12345678\"\n}",
							"options": {
								"raw": {
									"language": "json"
								}
							}
						},
						"url": {
							"raw": "localhost/api/auth/register",
							"host": [
								"localhost"
							],
							"path": [
								"api",
								"auth",
								"register"
							]
						}
					},
					"response": []
				},
				{
					"name": "Logout",
					"request": {
						"method": "PUT",
						"header": [
							{
								"key": "Authorization",
								"value": "Bearer eyJ0eXAiOiJKV1QiLCJhbGciOiJIUzI1NiJ9.eyJpc3MiOiJodHRwOlwvXC9sb2NhbGhvc3RcL2FwaVwvYXV0aFwvbG9naW4iLCJpYXQiOjE2MzI0MTAzNDYsImV4cCI6MTYzMjQxMzk0NiwibmJmIjoxNjMyNDEwMzQ2LCJqdGkiOiJLV054Z0JUakh6THJlWW5IIiwic3ViIjoxLCJwcnYiOiIyM2JkNWM4OTQ5ZjYwMGFkYjM5ZTcwMWM0MDA4NzJkYjdhNTk3NmY3In0.l7YA7iuEwVcbwMijiCQlVBAcKn-ewRRraTZVTJw2cDI",
								"type": "text"
							}
						],
						"body": {
							"mode": "raw",
							"raw": "",
							"options": {
								"raw": {
									"language": "json"
								}
							}
						},
						"url": {
							"raw": "localhost/api/auth/logout",
							"host": [
								"localhost"
							],
							"path": [
								"api",
								"auth",
								"logout"
							]
						}
					},
					"response": []
				},
				{
					"name": "User profile",
					"protocolProfileBehavior": {
						"disableBodyPruning": true
					},
					"request": {
						"method": "GET",
						"header": [
							{
								"key": "Authorization",
								"value": "Bearer eyJ0eXAiOiJKV1QiLCJhbGciOiJIUzI1NiJ9.eyJpc3MiOiJodHRwOlwvXC9sb2NhbGhvc3RcL2FwaVwvYXV0aFwvbG9naW4iLCJpYXQiOjE2MzI1MDI0NjEsImV4cCI6MTYzMjUwNjA2MSwibmJmIjoxNjMyNTAyNDYxLCJqdGkiOiJTWW1mTGZoNTlHUmpVQ05sIiwic3ViIjoxMiwicHJ2IjoiMjNiZDVjODk0OWY2MDBhZGIzOWU3MDFjNDAwODcyZGI3YTU5NzZmNyJ9.T8FriHI-Jehj07gi7Rudhbodzj8hF9ycAEAS0CBJL4Y",
								"type": "text"
							}
						],
						"body": {
							"mode": "raw",
							"raw": "",
							"options": {
								"raw": {
									"language": "json"
								}
							}
						},
						"url": {
							"raw": "localhost/api/auth/user-profile",
							"host": [
								"localhost"
							],
							"path": [
								"api",
								"auth",
								"user-profile"
							]
						}
					},
					"response": []
				}
			]
		},
		{
			"name": "CUSTOMER",
			"item": [
				{
					"name": "Create customer",
					"request": {
						"method": "POST",
						"header": [
							{
								"key": "Authorization",
								"value": "Bearer eyJ0eXAiOiJKV1QiLCJhbGciOiJIUzI1NiJ9.eyJpc3MiOiJodHRwOlwvXC9sb2NhbGhvc3RcL2FwaVwvYXV0aFwvbG9naW4iLCJpYXQiOjE2MzI1MDI0NjEsImV4cCI6MTYzMjUwNjA2MSwibmJmIjoxNjMyNTAyNDYxLCJqdGkiOiJTWW1mTGZoNTlHUmpVQ05sIiwic3ViIjoxMiwicHJ2IjoiMjNiZDVjODk0OWY2MDBhZGIzOWU3MDFjNDAwODcyZGI3YTU5NzZmNyJ9.T8FriHI-Jehj07gi7Rudhbodzj8hF9ycAEAS0CBJL4Y",
								"type": "text"
							}
						],
						"body": {
							"mode": "raw",
							"raw": "{\n    \"description\": \"Test create stripe customer 2\",\n    \"name\": \"Test user\",\n    \"email\": \"test1@gmail.com\",\n    \"password\": \"12345678\"\n}",
							"options": {
								"raw": {
									"language": "json"
								}
							}
						},
						"url": {
							"raw": "localhost/api/customer",
							"host": [
								"localhost"
							],
							"path": [
								"api",
								"customer"
							]
						}
					},
					"response": []
				},
				{
					"name": "Update customer",
					"request": {
						"method": "PUT",
						"header": [
							{
								"key": "Authorization",
								"value": "Bearer eyJ0eXAiOiJKV1QiLCJhbGciOiJIUzI1NiJ9.eyJpc3MiOiJodHRwOlwvXC9sb2NhbGhvc3RcL2FwaVwvYXV0aFwvbG9naW4iLCJpYXQiOjE2MzI0MTQzMjksImV4cCI6MTYzMjQxNzkyOSwibmJmIjoxNjMyNDE0MzI5LCJqdGkiOiJEZEtWTEVvZmw3SFEwWk5nIiwic3ViIjoxLCJwcnYiOiIyM2JkNWM4OTQ5ZjYwMGFkYjM5ZTcwMWM0MDA4NzJkYjdhNTk3NmY3In0.1gW-QjEmIOBrUjueLUY-hfswPxAHDxaM7o8FxLINAXQ",
								"type": "text"
							}
						],
						"body": {
							"mode": "raw",
							"raw": "{\n    \"description\": \"Test create stripe customer 2\",\n    \"email\": \"tcodevn+2@gmail.com\",\n    \"name\": \"tcodenv2\"\n}",
							"options": {
								"raw": {
									"language": "json"
								}
							}
						},
						"url": {
							"raw": "localhost/api/customer/cus_KHUAzkjbk9DSmZ",
							"host": [
								"localhost"
							],
							"path": [
								"api",
								"customer",
								"cus_KHUAzkjbk9DSmZ"
							]
						}
					},
					"response": []
				},
				{
					"name": "Get customer",
					"protocolProfileBehavior": {
						"disableBodyPruning": true
					},
					"request": {
						"method": "GET",
						"header": [
							{
								"key": "Authorization",
								"value": "Bearer eyJ0eXAiOiJKV1QiLCJhbGciOiJIUzI1NiJ9.eyJpc3MiOiJodHRwOlwvXC9sb2NhbGhvc3RcL2FwaVwvYXV0aFwvbG9naW4iLCJpYXQiOjE2MzI0MTU2ODcsImV4cCI6MTYzMjQxOTI4NywibmJmIjoxNjMyNDE1Njg3LCJqdGkiOiJNYUI4M1FCU1IzdDVPSDgzIiwic3ViIjoxLCJwcnYiOiIyM2JkNWM4OTQ5ZjYwMGFkYjM5ZTcwMWM0MDA4NzJkYjdhNTk3NmY3In0.EfgJGGBeNgDfZjkDfJAxVUW8rfMYjF540SoXqidReXo",
								"type": "text"
							}
						],
						"body": {
							"mode": "raw",
							"raw": "",
							"options": {
								"raw": {
									"language": "json"
								}
							}
						},
						"url": {
							"raw": "localhost/api/customer",
							"host": [
								"localhost"
							],
							"path": [
								"api",
								"customer"
							]
						}
					},
					"response": []
				},
				{
					"name": "Get customer detail",
					"protocolProfileBehavior": {
						"disableBodyPruning": true
					},
					"request": {
						"method": "GET",
						"header": [
							{
								"key": "Authorization",
								"value": "Bearer eyJ0eXAiOiJKV1QiLCJhbGciOiJIUzI1NiJ9.eyJpc3MiOiJodHRwOlwvXC9sb2NhbGhvc3RcL2FwaVwvYXV0aFwvbG9naW4iLCJpYXQiOjE2MzI0MTU2ODcsImV4cCI6MTYzMjQxOTI4NywibmJmIjoxNjMyNDE1Njg3LCJqdGkiOiJNYUI4M1FCU1IzdDVPSDgzIiwic3ViIjoxLCJwcnYiOiIyM2JkNWM4OTQ5ZjYwMGFkYjM5ZTcwMWM0MDA4NzJkYjdhNTk3NmY3In0.EfgJGGBeNgDfZjkDfJAxVUW8rfMYjF540SoXqidReXo",
								"type": "text"
							}
						],
						"body": {
							"mode": "raw",
							"raw": "",
							"options": {
								"raw": {
									"language": "json"
								}
							}
						},
						"url": {
							"raw": "localhost/api/customer/cus_KHUAzkjbk9DSmZ",
							"host": [
								"localhost"
							],
							"path": [
								"api",
								"customer",
								"cus_KHUAzkjbk9DSmZ"
							]
						}
					},
					"response": []
				}
			]
		}
	]
}